%!PS-Adobe-3.0 EPSF-3.0
%%Creator: (MATLAB, The Mathworks, Inc. Version 9.4.0.813654 \(R2018a\). Operating System: Mac OS X)
%%Title: /Users/thiebout/master/anomaly-detection-mki-2019/text-2019/img/results/fs/gmm/progress.eps
%%CreationDate: 2019-06-02T13:44:25
%%Pages: (atend)
%%BoundingBox: 0 0 800 400
%%LanguageLevel: 3
%%EndComments
%%BeginProlog
%%BeginResource: procset (Apache XML Graphics Std ProcSet) 1.2 0
%%Version: 1.2 0
%%Copyright: (Copyright 2001-2003,2010 The Apache Software Foundation. License terms: http://www.apache.org/licenses/LICENSE-2.0)
/bd{bind def}bind def
/ld{load def}bd
/GR/grestore ld
/GS/gsave ld
/RM/rmoveto ld
/C/curveto ld
/t/show ld
/L/lineto ld
/ML/setmiterlimit ld
/CT/concat ld
/f/fill ld
/N/newpath ld
/S/stroke ld
/CC/setcmykcolor ld
/A/ashow ld
/cp/closepath ld
/RC/setrgbcolor ld
/LJ/setlinejoin ld
/GC/setgray ld
/LW/setlinewidth ld
/M/moveto ld
/re {4 2 roll M
1 index 0 rlineto
0 exch rlineto
neg 0 rlineto
cp } bd
/_ctm matrix def
/_tm matrix def
/BT { _ctm currentmatrix pop matrix _tm copy pop 0 0 moveto } bd
/ET { _ctm setmatrix } bd
/iTm { _ctm setmatrix _tm concat } bd
/Tm { _tm astore pop iTm 0 0 moveto } bd
/ux 0.0 def
/uy 0.0 def
/F {
  /Tp exch def
  /Tf exch def
  Tf findfont Tp scalefont setfont
  /cf Tf def  /cs Tp def
} bd
/ULS {currentpoint /uy exch def /ux exch def} bd
/ULE {
  /Tcx currentpoint pop def
  gsave
  newpath
  cf findfont cs scalefont dup
  /FontMatrix get 0 get /Ts exch def /FontInfo get dup
  /UnderlinePosition get Ts mul /To exch def
  /UnderlineThickness get Ts mul /Tt exch def
  ux uy To add moveto  Tcx uy To add lineto
  Tt setlinewidth stroke
  grestore
} bd
/OLE {
  /Tcx currentpoint pop def
  gsave
  newpath
  cf findfont cs scalefont dup
  /FontMatrix get 0 get /Ts exch def /FontInfo get dup
  /UnderlinePosition get Ts mul /To exch def
  /UnderlineThickness get Ts mul /Tt exch def
  ux uy To add cs add moveto Tcx uy To add cs add lineto
  Tt setlinewidth stroke
  grestore
} bd
/SOE {
  /Tcx currentpoint pop def
  gsave
  newpath
  cf findfont cs scalefont dup
  /FontMatrix get 0 get /Ts exch def /FontInfo get dup
  /UnderlinePosition get Ts mul /To exch def
  /UnderlineThickness get Ts mul /Tt exch def
  ux uy To add cs 10 mul 26 idiv add moveto Tcx uy To add cs 10 mul 26 idiv add lineto
  Tt setlinewidth stroke
  grestore
} bd
/QT {
/Y22 exch store
/X22 exch store
/Y21 exch store
/X21 exch store
currentpoint
/Y21 load 2 mul add 3 div exch
/X21 load 2 mul add 3 div exch
/X21 load 2 mul /X22 load add 3 div
/Y21 load 2 mul /Y22 load add 3 div
/X22 load /Y22 load curveto
} bd
/SSPD {
dup length /d exch dict def
{
/v exch def
/k exch def
currentpagedevice k known {
/cpdv currentpagedevice k get def
v cpdv ne {
/upd false def
/nullv v type /nulltype eq def
/nullcpdv cpdv type /nulltype eq def
nullv nullcpdv or
{
/upd true def
} {
/sametype v type cpdv type eq def
sametype {
v type /arraytype eq {
/vlen v length def
/cpdvlen cpdv length def
vlen cpdvlen eq {
0 1 vlen 1 sub {
/i exch def
/obj v i get def
/cpdobj cpdv i get def
obj cpdobj ne {
/upd true def
exit
} if
} for
} {
/upd true def
} ifelse
} {
v type /dicttype eq {
v {
/dv exch def
/dk exch def
/cpddv cpdv dk get def
dv cpddv ne {
/upd true def
exit
} if
} forall
} {
/upd true def
} ifelse
} ifelse
} if
} ifelse
upd true eq {
d k v put
} if
} if
} if
} forall
d length 0 gt {
d setpagedevice
} if
} bd
/RE { % /NewFontName [NewEncodingArray] /FontName RE -
  findfont dup length dict begin
  {
    1 index /FID ne
    {def} {pop pop} ifelse
  } forall
  /Encoding exch def
  /FontName 1 index def
  currentdict definefont pop
  end
} bind def
%%EndResource
%%BeginResource: procset (Apache XML Graphics EPS ProcSet) 1.0 0
%%Version: 1.0 0
%%Copyright: (Copyright 2002-2003 The Apache Software Foundation. License terms: http://www.apache.org/licenses/LICENSE-2.0)
/BeginEPSF { %def
/b4_Inc_state save def         % Save state for cleanup
/dict_count countdictstack def % Count objects on dict stack
/op_count count 1 sub def      % Count objects on operand stack
userdict begin                 % Push userdict on dict stack
/showpage { } def              % Redefine showpage, { } = null proc
0 setgray 0 setlinecap         % Prepare graphics state
1 setlinewidth 0 setlinejoin
10 setmiterlimit [ ] 0 setdash newpath
/languagelevel where           % If level not equal to 1 then
{pop languagelevel             % set strokeadjust and
1 ne                           % overprint to their defaults.
{false setstrokeadjust false setoverprint
} if
} if
} bd
/EndEPSF { %def
count op_count sub {pop} repeat            % Clean up stacks
countdictstack dict_count sub {end} repeat
b4_Inc_state restore
} bd
%%EndResource
%FOPBeginFontDict
%%IncludeResource: font Courier-Oblique
%%IncludeResource: font Courier-BoldOblique
%%IncludeResource: font Courier-Bold
%%IncludeResource: font ZapfDingbats
%%IncludeResource: font Symbol
%%IncludeResource: font Helvetica
%%IncludeResource: font Helvetica-Oblique
%%IncludeResource: font Helvetica-Bold
%%IncludeResource: font Helvetica-BoldOblique
%%IncludeResource: font Times-Roman
%%IncludeResource: font Times-Italic
%%IncludeResource: font Times-Bold
%%IncludeResource: font Times-BoldItalic
%%IncludeResource: font Courier
%FOPEndFontDict
%%BeginResource: encoding WinAnsiEncoding
/WinAnsiEncoding [
/.notdef /.notdef /.notdef /.notdef /.notdef
/.notdef /.notdef /.notdef /.notdef /.notdef
/.notdef /.notdef /.notdef /.notdef /.notdef
/.notdef /.notdef /.notdef /.notdef /.notdef
/.notdef /.notdef /.notdef /.notdef /.notdef
/.notdef /.notdef /.notdef /.notdef /.notdef
/.notdef /.notdef /space /exclam /quotedbl
/numbersign /dollar /percent /ampersand /quotesingle
/parenleft /parenright /asterisk /plus /comma
/hyphen /period /slash /zero /one
/two /three /four /five /six
/seven /eight /nine /colon /semicolon
/less /equal /greater /question /at
/A /B /C /D /E
/F /G /H /I /J
/K /L /M /N /O
/P /Q /R /S /T
/U /V /W /X /Y
/Z /bracketleft /backslash /bracketright /asciicircum
/underscore /quoteleft /a /b /c
/d /e /f /g /h
/i /j /k /l /m
/n /o /p /q /r
/s /t /u /v /w
/x /y /z /braceleft /bar
/braceright /asciitilde /bullet /Euro /bullet
/quotesinglbase /florin /quotedblbase /ellipsis /dagger
/daggerdbl /circumflex /perthousand /Scaron /guilsinglleft
/OE /bullet /Zcaron /bullet /bullet
/quoteleft /quoteright /quotedblleft /quotedblright /bullet
/endash /emdash /asciitilde /trademark /scaron
/guilsinglright /oe /bullet /zcaron /Ydieresis
/space /exclamdown /cent /sterling /currency
/yen /brokenbar /section /dieresis /copyright
/ordfeminine /guillemotleft /logicalnot /sfthyphen /registered
/macron /degree /plusminus /twosuperior /threesuperior
/acute /mu /paragraph /middot /cedilla
/onesuperior /ordmasculine /guillemotright /onequarter /onehalf
/threequarters /questiondown /Agrave /Aacute /Acircumflex
/Atilde /Adieresis /Aring /AE /Ccedilla
/Egrave /Eacute /Ecircumflex /Edieresis /Igrave
/Iacute /Icircumflex /Idieresis /Eth /Ntilde
/Ograve /Oacute /Ocircumflex /Otilde /Odieresis
/multiply /Oslash /Ugrave /Uacute /Ucircumflex
/Udieresis /Yacute /Thorn /germandbls /agrave
/aacute /acircumflex /atilde /adieresis /aring
/ae /ccedilla /egrave /eacute /ecircumflex
/edieresis /igrave /iacute /icircumflex /idieresis
/eth /ntilde /ograve /oacute /ocircumflex
/otilde /odieresis /divide /oslash /ugrave
/uacute /ucircumflex /udieresis /yacute /thorn
/ydieresis
] def
%%EndResource
%FOPBeginFontReencode
/Courier-Oblique findfont
dup length dict begin
  {1 index /FID ne {def} {pop pop} ifelse} forall
  /Encoding WinAnsiEncoding def
  currentdict
end
/Courier-Oblique exch definefont pop
/Courier-BoldOblique findfont
dup length dict begin
  {1 index /FID ne {def} {pop pop} ifelse} forall
  /Encoding WinAnsiEncoding def
  currentdict
end
/Courier-BoldOblique exch definefont pop
/Courier-Bold findfont
dup length dict begin
  {1 index /FID ne {def} {pop pop} ifelse} forall
  /Encoding WinAnsiEncoding def
  currentdict
end
/Courier-Bold exch definefont pop
/Helvetica findfont
dup length dict begin
  {1 index /FID ne {def} {pop pop} ifelse} forall
  /Encoding WinAnsiEncoding def
  currentdict
end
/Helvetica exch definefont pop
/Helvetica-Oblique findfont
dup length dict begin
  {1 index /FID ne {def} {pop pop} ifelse} forall
  /Encoding WinAnsiEncoding def
  currentdict
end
/Helvetica-Oblique exch definefont pop
/Helvetica-Bold findfont
dup length dict begin
  {1 index /FID ne {def} {pop pop} ifelse} forall
  /Encoding WinAnsiEncoding def
  currentdict
end
/Helvetica-Bold exch definefont pop
/Helvetica-BoldOblique findfont
dup length dict begin
  {1 index /FID ne {def} {pop pop} ifelse} forall
  /Encoding WinAnsiEncoding def
  currentdict
end
/Helvetica-BoldOblique exch definefont pop
/Times-Roman findfont
dup length dict begin
  {1 index /FID ne {def} {pop pop} ifelse} forall
  /Encoding WinAnsiEncoding def
  currentdict
end
/Times-Roman exch definefont pop
/Times-Italic findfont
dup length dict begin
  {1 index /FID ne {def} {pop pop} ifelse} forall
  /Encoding WinAnsiEncoding def
  currentdict
end
/Times-Italic exch definefont pop
/Times-Bold findfont
dup length dict begin
  {1 index /FID ne {def} {pop pop} ifelse} forall
  /Encoding WinAnsiEncoding def
  currentdict
end
/Times-Bold exch definefont pop
/Times-BoldItalic findfont
dup length dict begin
  {1 index /FID ne {def} {pop pop} ifelse} forall
  /Encoding WinAnsiEncoding def
  currentdict
end
/Times-BoldItalic exch definefont pop
/Courier findfont
dup length dict begin
  {1 index /FID ne {def} {pop pop} ifelse} forall
  /Encoding WinAnsiEncoding def
  currentdict
end
/Courier exch definefont pop
%FOPEndFontReencode
%%EndProlog
%%Page: 1 1
%%PageBoundingBox: 0 0 800 400
%%BeginPageSetup
[1 0 0 -1 0 400] CT
%%EndPageSetup
GS
1 GC
N
0 0 800 400 re
f
GR
GS
1 GC
N
0 0 800 400 re
f
GR
GS
1 GC
N
104 348.5 M
724 348.5 L
724 35 L
104 35 L
cp
f
GR
GS
0.149 GC
2 setlinecap
1 LJ
0.5 LW
N
104 348.5 M
724 348.5 L
S
GR
GS
0.149 GC
2 setlinecap
1 LJ
0.5 LW
N
104 35 M
724 35 L
S
GR
GS
0.149 GC
2 setlinecap
1 LJ
0.5 LW
N
136.632 348.5 M
136.632 342.3 L
S
GR
GS
0.149 GC
2 setlinecap
1 LJ
0.5 LW
N
201.895 348.5 M
201.895 342.3 L
S
GR
GS
0.149 GC
2 setlinecap
1 LJ
0.5 LW
N
267.158 348.5 M
267.158 342.3 L
S
GR
GS
0.149 GC
2 setlinecap
1 LJ
0.5 LW
N
332.421 348.5 M
332.421 342.3 L
S
GR
GS
0.149 GC
2 setlinecap
1 LJ
0.5 LW
N
397.684 348.5 M
397.684 342.3 L
S
GR
GS
0.149 GC
2 setlinecap
1 LJ
0.5 LW
N
462.947 348.5 M
462.947 342.3 L
S
GR
GS
0.149 GC
2 setlinecap
1 LJ
0.5 LW
N
528.211 348.5 M
528.211 342.3 L
S
GR
GS
0.149 GC
2 setlinecap
1 LJ
0.5 LW
N
593.474 348.5 M
593.474 342.3 L
S
GR
GS
0.149 GC
2 setlinecap
1 LJ
0.5 LW
N
658.737 348.5 M
658.737 342.3 L
S
GR
GS
0.149 GC
2 setlinecap
1 LJ
0.5 LW
N
724 348.5 M
724 342.3 L
S
GR
GS
0.149 GC
2 setlinecap
1 LJ
0.5 LW
N
136.632 35 M
136.632 41.2 L
S
GR
GS
0.149 GC
2 setlinecap
1 LJ
0.5 LW
N
201.895 35 M
201.895 41.2 L
S
GR
GS
0.149 GC
2 setlinecap
1 LJ
0.5 LW
N
267.158 35 M
267.158 41.2 L
S
GR
GS
0.149 GC
2 setlinecap
1 LJ
0.5 LW
N
332.421 35 M
332.421 41.2 L
S
GR
GS
0.149 GC
2 setlinecap
1 LJ
0.5 LW
N
397.684 35 M
397.684 41.2 L
S
GR
GS
0.149 GC
2 setlinecap
1 LJ
0.5 LW
N
462.947 35 M
462.947 41.2 L
S
GR
GS
0.149 GC
2 setlinecap
1 LJ
0.5 LW
N
528.211 35 M
528.211 41.2 L
S
GR
GS
0.149 GC
2 setlinecap
1 LJ
0.5 LW
N
593.474 35 M
593.474 41.2 L
S
GR
GS
0.149 GC
2 setlinecap
1 LJ
0.5 LW
N
658.737 35 M
658.737 41.2 L
S
GR
GS
0.149 GC
2 setlinecap
1 LJ
0.5 LW
N
724 35 M
724 41.2 L
S
GR
GS
[1 0 0 1 136.63158 354.10001] CT
0.149 GC
/Helvetica 18 F
GS
[1 0 0 1 0 0] CT
-5.5 18 moveto 
1 -1 scale
(2) t 
GR
GR
GS
[1 0 0 1 201.89473 354.10001] CT
0.149 GC
/Helvetica 18 F
GS
[1 0 0 1 0 0] CT
-5.5 18 moveto 
1 -1 scale
(4) t 
GR
GR
GS
[1 0 0 1 267.1579 354.10001] CT
0.149 GC
/Helvetica 18 F
GS
[1 0 0 1 0 0] CT
-5.5 18 moveto 
1 -1 scale
(6) t 
GR
GR
GS
[1 0 0 1 332.42105 354.10001] CT
0.149 GC
/Helvetica 18 F
GS
[1 0 0 1 0 0] CT
-5.5 18 moveto 
1 -1 scale
(8) t 
GR
GR
GS
[1 0 0 1 397.6842 354.10001] CT
0.149 GC
/Helvetica 18 F
GS
[1 0 0 1 0 0] CT
-10.5 18 moveto 
1 -1 scale
(10) t 
GR
GR
GS
[1 0 0 1 462.94736 354.10001] CT
0.149 GC
/Helvetica 18 F
GS
[1 0 0 1 0 0] CT
-10.5 18 moveto 
1 -1 scale
(12) t 
GR
GR
GS
[1 0 0 1 528.21051 354.10001] CT
0.149 GC
/Helvetica 18 F
GS
[1 0 0 1 0 0] CT
-10.5 18 moveto 
1 -1 scale
(14) t 
GR
GR
GS
[1 0 0 1 593.47369 354.10001] CT
0.149 GC
/Helvetica 18 F
GS
[1 0 0 1 0 0] CT
-10.5 18 moveto 
1 -1 scale
(16) t 
GR
GR
GS
[1 0 0 1 658.73682 354.10001] CT
0.149 GC
/Helvetica 18 F
GS
[1 0 0 1 0 0] CT
-10.5 18 moveto 
1 -1 scale
(18) t 
GR
GR
GS
[1 0 0 1 724 354.10001] CT
0.149 GC
/Helvetica 18 F
GS
[1 0 0 1 0 0] CT
-10.5 18 moveto 
1 -1 scale
(20) t 
GR
GR
GS
[1 0 0 1 414.00027 376.60001] CT
0.149 GC
/Helvetica 19.8 F
GS
[1 0 0 1 0 0] CT
-36.5 19 moveto 
1 -1 scale
(Iteration) t 
GR
GR
GS
0.149 GC
2 setlinecap
1 LJ
0.5 LW
N
104 348.5 M
104 35 L
S
GR
GS
0.149 GC
2 setlinecap
1 LJ
0.5 LW
N
724 348.5 M
724 35 L
S
GR
GS
0.149 GC
2 setlinecap
1 LJ
0.5 LW
N
104 348.5 M
110.2 348.5 L
S
GR
GS
0.149 GC
2 setlinecap
1 LJ
0.5 LW
N
104 270.125 M
110.2 270.125 L
S
GR
GS
0.149 GC
2 setlinecap
1 LJ
0.5 LW
N
104 191.75 M
110.2 191.75 L
S
GR
GS
0.149 GC
2 setlinecap
1 LJ
0.5 LW
N
104 113.375 M
110.2 113.375 L
S
GR
GS
0.149 GC
2 setlinecap
1 LJ
0.5 LW
N
104 35 M
110.2 35 L
S
GR
GS
0.149 GC
2 setlinecap
1 LJ
0.5 LW
N
724 348.5 M
717.8 348.5 L
S
GR
GS
0.149 GC
2 setlinecap
1 LJ
0.5 LW
N
724 270.125 M
717.8 270.125 L
S
GR
GS
0.149 GC
2 setlinecap
1 LJ
0.5 LW
N
724 191.75 M
717.8 191.75 L
S
GR
GS
0.149 GC
2 setlinecap
1 LJ
0.5 LW
N
724 113.375 M
717.8 113.375 L
S
GR
GS
0.149 GC
2 setlinecap
1 LJ
0.5 LW
N
724 35 M
717.8 35 L
S
GR
GS
[1 0 0 1 98.4 348.5] CT
0.149 GC
/Helvetica 18 F
GS
[1 0 0 1 0 0] CT
-11 7 moveto 
1 -1 scale
(0) t 
GR
GR
GS
[1 0 0 1 98.4 270.125] CT
0.149 GC
/Helvetica 18 F
GS
[1 0 0 1 0 0] CT
-21 7 moveto 
1 -1 scale
(50) t 
GR
GR
GS
[1 0 0 1 98.4 191.75] CT
0.149 GC
/Helvetica 18 F
GS
[1 0 0 1 0 0] CT
-31 7 moveto 
1 -1 scale
(100) t 
GR
GR
GS
[1 0 0 1 98.4 113.375] CT
0.149 GC
/Helvetica 18 F
GS
[1 0 0 1 0 0] CT
-31 7 moveto 
1 -1 scale
(150) t 
GR
GR
GS
[1 0 0 1 98.4 35] CT
0.149 GC
/Helvetica 18 F
GS
[1 0 0 1 0 0] CT
-31 7 moveto 
1 -1 scale
(200) t 
GR
GR
GS
[0 -1 1 0 64.9 191.74986] CT
0.149 GC
/Helvetica 19.8 F
GS
[1 0 0 1 0 0] CT
-42.5 -5 moveto 
1 -1 scale
(Best rank) t 
GR
GR
GS
[1 0 0 1 264 27] CT
/Helvetica-Bold 25 F
GS
[1 0 0 1 0 0] CT
0 0 moveto 
1 -1 scale
( Feature selection \(GMM\)) t 
GR
GR
GS
0 0.447 0.741 RC
1 LJ
0.5 LW
N
104 36.301 M
136.632 141.684 L
169.263 184.602 L
201.895 199.587 L
234.526 210.466 L
267.158 233.461 L
299.789 240.248 L
332.421 250.359 L
365.053 253.494 L
397.684 258.024 L
430.316 259.764 L
462.947 260.109 L
495.579 260.814 L
528.211 261.504 L
560.842 262.193 L
593.474 268.385 L
626.105 268.463 L
658.737 268.557 L
691.368 268.557 L
724 268.557 L
S
GR
GS
[1 0 0 1 104 36.30103] CT
0 0.447 0.741 RC
10.0 ML
N
3 0 M
3 -1.657 1.657 -3 0 -3 C
-1.657 -3 -3 -1.657 -3 0 C
-3 1.657 -1.657 3 0 3 C
1.657 3 3 1.657 3 0 C
cp
S
GR
GS
[1 0 0 1 136.63158 141.68405] CT
0 0.447 0.741 RC
10.0 ML
N
3 0 M
3 -1.657 1.657 -3 0 -3 C
-1.657 -3 -3 -1.657 -3 0 C
-3 1.657 -1.657 3 0 3 C
1.657 3 3 1.657 3 0 C
cp
S
GR
GS
[1 0 0 1 169.26315 184.6022] CT
0 0.447 0.741 RC
10.0 ML
N
3 0 M
3 -1.657 1.657 -3 0 -3 C
-1.657 -3 -3 -1.657 -3 0 C
-3 1.657 -1.657 3 0 3 C
1.657 3 3 1.657 3 0 C
cp
S
GR
GS
[1 0 0 1 201.89473 199.58749] CT
0 0.447 0.741 RC
10.0 ML
N
3 0 M
3 -1.657 1.657 -3 0 -3 C
-1.657 -3 -3 -1.657 -3 0 C
-3 1.657 -1.657 3 0 3 C
1.657 3 3 1.657 3 0 C
cp
S
GR
GS
[1 0 0 1 234.52632 210.46596] CT
0 0.447 0.741 RC
10.0 ML
N
3 0 M
3 -1.657 1.657 -3 0 -3 C
-1.657 -3 -3 -1.657 -3 0 C
-3 1.657 -1.657 3 0 3 C
1.657 3 3 1.657 3 0 C
cp
S
GR
GS
[1 0 0 1 267.1579 233.46118] CT
0 0.447 0.741 RC
10.0 ML
N
3 0 M
3 -1.657 1.657 -3 0 -3 C
-1.657 -3 -3 -1.657 -3 0 C
-3 1.657 -1.657 3 0 3 C
1.657 3 3 1.657 3 0 C
cp
S
GR
GS
[1 0 0 1 299.78946 240.24846] CT
0 0.447 0.741 RC
10.0 ML
N
3 0 M
3 -1.657 1.657 -3 0 -3 C
-1.657 -3 -3 -1.657 -3 0 C
-3 1.657 -1.657 3 0 3 C
1.657 3 3 1.657 3 0 C
cp
S
GR
GS
[1 0 0 1 332.42105 250.35883] CT
0 0.447 0.741 RC
10.0 ML
N
3 0 M
3 -1.657 1.657 -3 0 -3 C
-1.657 -3 -3 -1.657 -3 0 C
-3 1.657 -1.657 3 0 3 C
1.657 3 3 1.657 3 0 C
cp
S
GR
GS
[1 0 0 1 365.05264 253.49382] CT
0 0.447 0.741 RC
10.0 ML
N
3 0 M
3 -1.657 1.657 -3 0 -3 C
-1.657 -3 -3 -1.657 -3 0 C
-3 1.657 -1.657 3 0 3 C
1.657 3 3 1.657 3 0 C
cp
S
GR
GS
[1 0 0 1 397.6842 258.0239] CT
0 0.447 0.741 RC
10.0 ML
N
3 0 M
3 -1.657 1.657 -3 0 -3 C
-1.657 -3 -3 -1.657 -3 0 C
-3 1.657 -1.657 3 0 3 C
1.657 3 3 1.657 3 0 C
cp
S
GR
GS
[1 0 0 1 430.3158 259.76382] CT
0 0.447 0.741 RC
10.0 ML
N
3 0 M
3 -1.657 1.657 -3 0 -3 C
-1.657 -3 -3 -1.657 -3 0 C
-3 1.657 -1.657 3 0 3 C
1.657 3 3 1.657 3 0 C
cp
S
GR
GS
[1 0 0 1 462.94736 260.10867] CT
0 0.447 0.741 RC
10.0 ML
N
3 0 M
3 -1.657 1.657 -3 0 -3 C
-1.657 -3 -3 -1.657 -3 0 C
-3 1.657 -1.657 3 0 3 C
1.657 3 3 1.657 3 0 C
cp
S
GR
GS
[1 0 0 1 495.57895 260.81406] CT
0 0.447 0.741 RC
10.0 ML
N
3 0 M
3 -1.657 1.657 -3 0 -3 C
-1.657 -3 -3 -1.657 -3 0 C
-3 1.657 -1.657 3 0 3 C
1.657 3 3 1.657 3 0 C
cp
S
GR
GS
[1 0 0 1 528.21051 261.50375] CT
0 0.447 0.741 RC
10.0 ML
N
3 0 M
3 -1.657 1.657 -3 0 -3 C
-1.657 -3 -3 -1.657 -3 0 C
-3 1.657 -1.657 3 0 3 C
1.657 3 3 1.657 3 0 C
cp
S
GR
GS
[1 0 0 1 560.8421 262.19345] CT
0 0.447 0.741 RC
10.0 ML
N
3 0 M
3 -1.657 1.657 -3 0 -3 C
-1.657 -3 -3 -1.657 -3 0 C
-3 1.657 -1.657 3 0 3 C
1.657 3 3 1.657 3 0 C
cp
S
GR
GS
[1 0 0 1 593.47369 268.38507] CT
0 0.447 0.741 RC
10.0 ML
N
3 0 M
3 -1.657 1.657 -3 0 -3 C
-1.657 -3 -3 -1.657 -3 0 C
-3 1.657 -1.657 3 0 3 C
1.657 3 3 1.657 3 0 C
cp
S
GR
GS
[1 0 0 1 626.10529 268.46344] CT
0 0.447 0.741 RC
10.0 ML
N
3 0 M
3 -1.657 1.657 -3 0 -3 C
-1.657 -3 -3 -1.657 -3 0 C
-3 1.657 -1.657 3 0 3 C
1.657 3 3 1.657 3 0 C
cp
S
GR
GS
[1 0 0 1 658.73682 268.5575] CT
0 0.447 0.741 RC
10.0 ML
N
3 0 M
3 -1.657 1.657 -3 0 -3 C
-1.657 -3 -3 -1.657 -3 0 C
-3 1.657 -1.657 3 0 3 C
1.657 3 3 1.657 3 0 C
cp
S
GR
GS
[1 0 0 1 691.36841 268.5575] CT
0 0.447 0.741 RC
10.0 ML
N
3 0 M
3 -1.657 1.657 -3 0 -3 C
-1.657 -3 -3 -1.657 -3 0 C
-3 1.657 -1.657 3 0 3 C
1.657 3 3 1.657 3 0 C
cp
S
GR
GS
[1 0 0 1 724 268.5575] CT
0 0.447 0.741 RC
10.0 ML
N
3 0 M
3 -1.657 1.657 -3 0 -3 C
-1.657 -3 -3 -1.657 -3 0 C
-3 1.657 -1.657 3 0 3 C
1.657 3 3 1.657 3 0 C
cp
S
GR
GS
0.851 0.325 0.098 RC
1 LJ
0.5 LW
N
104 261.692 M
136.632 291.882 L
169.263 304.218 L
201.895 316.554 L
234.526 318.717 L
267.158 322.824 L
299.789 326.743 L
332.421 327.731 L
365.053 327.731 L
397.684 327.731 L
430.316 327.731 L
462.947 328.718 L
495.579 328.718 L
528.211 328.906 L
560.842 328.906 L
593.474 333.217 L
626.105 333.421 L
658.737 333.421 L
691.368 334.001 L
724 334.001 L
S
GR
GS
[1 0 0 1 104 261.69183] CT
0.851 0.325 0.098 RC
10.0 ML
N
3 0 M
3 -1.657 1.657 -3 0 -3 C
-1.657 -3 -3 -1.657 -3 0 C
-3 1.657 -1.657 3 0 3 C
1.657 3 3 1.657 3 0 C
cp
S
GR
GS
[1 0 0 1 136.63158 291.8819] CT
0.851 0.325 0.098 RC
10.0 ML
N
3 0 M
3 -1.657 1.657 -3 0 -3 C
-1.657 -3 -3 -1.657 -3 0 C
-3 1.657 -1.657 3 0 3 C
1.657 3 3 1.657 3 0 C
cp
S
GR
GS
[1 0 0 1 169.26315 304.21814] CT
0.851 0.325 0.098 RC
10.0 ML
N
3 0 M
3 -1.657 1.657 -3 0 -3 C
-1.657 -3 -3 -1.657 -3 0 C
-3 1.657 -1.657 3 0 3 C
1.657 3 3 1.657 3 0 C
cp
S
GR
GS
[1 0 0 1 201.89473 316.55435] CT
0.851 0.325 0.098 RC
10.0 ML
N
3 0 M
3 -1.657 1.657 -3 0 -3 C
-1.657 -3 -3 -1.657 -3 0 C
-3 1.657 -1.657 3 0 3 C
1.657 3 3 1.657 3 0 C
cp
S
GR
GS
[1 0 0 1 234.52632 318.7175] CT
0.851 0.325 0.098 RC
10.0 ML
N
3 0 M
3 -1.657 1.657 -3 0 -3 C
-1.657 -3 -3 -1.657 -3 0 C
-3 1.657 -1.657 3 0 3 C
1.657 3 3 1.657 3 0 C
cp
S
GR
GS
[1 0 0 1 267.1579 322.82434] CT
0.851 0.325 0.098 RC
10.0 ML
N
3 0 M
3 -1.657 1.657 -3 0 -3 C
-1.657 -3 -3 -1.657 -3 0 C
-3 1.657 -1.657 3 0 3 C
1.657 3 3 1.657 3 0 C
cp
S
GR
GS
[1 0 0 1 299.78946 326.7431] CT
0.851 0.325 0.098 RC
10.0 ML
N
3 0 M
3 -1.657 1.657 -3 0 -3 C
-1.657 -3 -3 -1.657 -3 0 C
-3 1.657 -1.657 3 0 3 C
1.657 3 3 1.657 3 0 C
cp
S
GR
GS
[1 0 0 1 332.42105 327.73062] CT
0.851 0.325 0.098 RC
10.0 ML
N
3 0 M
3 -1.657 1.657 -3 0 -3 C
-1.657 -3 -3 -1.657 -3 0 C
-3 1.657 -1.657 3 0 3 C
1.657 3 3 1.657 3 0 C
cp
S
GR
GS
[1 0 0 1 365.05264 327.73062] CT
0.851 0.325 0.098 RC
10.0 ML
N
3 0 M
3 -1.657 1.657 -3 0 -3 C
-1.657 -3 -3 -1.657 -3 0 C
-3 1.657 -1.657 3 0 3 C
1.657 3 3 1.657 3 0 C
cp
S
GR
GS
[1 0 0 1 397.6842 327.73062] CT
0.851 0.325 0.098 RC
10.0 ML
N
3 0 M
3 -1.657 1.657 -3 0 -3 C
-1.657 -3 -3 -1.657 -3 0 C
-3 1.657 -1.657 3 0 3 C
1.657 3 3 1.657 3 0 C
cp
S
GR
GS
[1 0 0 1 430.3158 327.73062] CT
0.851 0.325 0.098 RC
10.0 ML
N
3 0 M
3 -1.657 1.657 -3 0 -3 C
-1.657 -3 -3 -1.657 -3 0 C
-3 1.657 -1.657 3 0 3 C
1.657 3 3 1.657 3 0 C
cp
S
GR
GS
[1 0 0 1 462.94736 328.71814] CT
0.851 0.325 0.098 RC
10.0 ML
N
3 0 M
3 -1.657 1.657 -3 0 -3 C
-1.657 -3 -3 -1.657 -3 0 C
-3 1.657 -1.657 3 0 3 C
1.657 3 3 1.657 3 0 C
cp
S
GR
GS
[1 0 0 1 495.57895 328.71814] CT
0.851 0.325 0.098 RC
10.0 ML
N
3 0 M
3 -1.657 1.657 -3 0 -3 C
-1.657 -3 -3 -1.657 -3 0 C
-3 1.657 -1.657 3 0 3 C
1.657 3 3 1.657 3 0 C
cp
S
GR
GS
[1 0 0 1 528.21051 328.90625] CT
0.851 0.325 0.098 RC
10.0 ML
N
3 0 M
3 -1.657 1.657 -3 0 -3 C
-1.657 -3 -3 -1.657 -3 0 C
-3 1.657 -1.657 3 0 3 C
1.657 3 3 1.657 3 0 C
cp
S
GR
GS
[1 0 0 1 560.8421 328.90625] CT
0.851 0.325 0.098 RC
10.0 ML
N
3 0 M
3 -1.657 1.657 -3 0 -3 C
-1.657 -3 -3 -1.657 -3 0 C
-3 1.657 -1.657 3 0 3 C
1.657 3 3 1.657 3 0 C
cp
S
GR
GS
[1 0 0 1 593.47369 333.21689] CT
0.851 0.325 0.098 RC
10.0 ML
N
3 0 M
3 -1.657 1.657 -3 0 -3 C
-1.657 -3 -3 -1.657 -3 0 C
-3 1.657 -1.657 3 0 3 C
1.657 3 3 1.657 3 0 C
cp
S
GR
GS
[1 0 0 1 626.10529 333.42065] CT
0.851 0.325 0.098 RC
10.0 ML
N
3 0 M
3 -1.657 1.657 -3 0 -3 C
-1.657 -3 -3 -1.657 -3 0 C
-3 1.657 -1.657 3 0 3 C
1.657 3 3 1.657 3 0 C
cp
S
GR
GS
[1 0 0 1 658.73682 333.42065] CT
0.851 0.325 0.098 RC
10.0 ML
N
3 0 M
3 -1.657 1.657 -3 0 -3 C
-1.657 -3 -3 -1.657 -3 0 C
-3 1.657 -1.657 3 0 3 C
1.657 3 3 1.657 3 0 C
cp
S
GR
GS
[1 0 0 1 691.36841 334.00061] CT
0.851 0.325 0.098 RC
10.0 ML
N
3 0 M
3 -1.657 1.657 -3 0 -3 C
-1.657 -3 -3 -1.657 -3 0 C
-3 1.657 -1.657 3 0 3 C
1.657 3 3 1.657 3 0 C
cp
S
GR
GS
[1 0 0 1 724 334.00061] CT
0.851 0.325 0.098 RC
10.0 ML
N
3 0 M
3 -1.657 1.657 -3 0 -3 C
-1.657 -3 -3 -1.657 -3 0 C
-3 1.657 -1.657 3 0 3 C
1.657 3 3 1.657 3 0 C
cp
S
GR
GS
0.929 0.694 0.125 RC
1 LJ
0.5 LW
N
104 273.26 M
136.632 318.717 L
169.263 326.1 L
201.895 329.235 L
234.526 331.712 L
267.158 332.606 L
299.789 332.606 L
332.421 331.712 L
365.053 330.803 L
397.684 331.712 L
430.316 332.151 L
462.947 332.606 L
495.579 333.044 L
528.211 332.825 L
560.842 332.151 L
593.474 332.606 L
626.105 333.499 L
658.737 333.044 L
691.368 332.606 L
724 327.229 L
S
GR
GS
[1 0 0 1 104 273.26001] CT
0.929 0.694 0.125 RC
10.0 ML
N
3 0 M
3 -1.657 1.657 -3 0 -3 C
-1.657 -3 -3 -1.657 -3 0 C
-3 1.657 -1.657 3 0 3 C
1.657 3 3 1.657 3 0 C
cp
S
GR
GS
[1 0 0 1 136.63158 318.7175] CT
0.929 0.694 0.125 RC
10.0 ML
N
3 0 M
3 -1.657 1.657 -3 0 -3 C
-1.657 -3 -3 -1.657 -3 0 C
-3 1.657 -1.657 3 0 3 C
1.657 3 3 1.657 3 0 C
cp
S
GR
GS
[1 0 0 1 169.26315 326.10043] CT
0.929 0.694 0.125 RC
10.0 ML
N
3 0 M
3 -1.657 1.657 -3 0 -3 C
-1.657 -3 -3 -1.657 -3 0 C
-3 1.657 -1.657 3 0 3 C
1.657 3 3 1.657 3 0 C
cp
S
GR
GS
[1 0 0 1 201.89473 329.23541] CT
0.929 0.694 0.125 RC
10.0 ML
N
3 0 M
3 -1.657 1.657 -3 0 -3 C
-1.657 -3 -3 -1.657 -3 0 C
-3 1.657 -1.657 3 0 3 C
1.657 3 3 1.657 3 0 C
cp
S
GR
GS
[1 0 0 1 234.52632 331.71207] CT
0.929 0.694 0.125 RC
10.0 ML
N
3 0 M
3 -1.657 1.657 -3 0 -3 C
-1.657 -3 -3 -1.657 -3 0 C
-3 1.657 -1.657 3 0 3 C
1.657 3 3 1.657 3 0 C
cp
S
GR
GS
[1 0 0 1 267.1579 332.60556] CT
0.929 0.694 0.125 RC
10.0 ML
N
3 0 M
3 -1.657 1.657 -3 0 -3 C
-1.657 -3 -3 -1.657 -3 0 C
-3 1.657 -1.657 3 0 3 C
1.657 3 3 1.657 3 0 C
cp
S
GR
GS
[1 0 0 1 299.78946 332.60556] CT
0.929 0.694 0.125 RC
10.0 ML
N
3 0 M
3 -1.657 1.657 -3 0 -3 C
-1.657 -3 -3 -1.657 -3 0 C
-3 1.657 -1.657 3 0 3 C
1.657 3 3 1.657 3 0 C
cp
S
GR
GS
[1 0 0 1 332.42105 331.71207] CT
0.929 0.694 0.125 RC
10.0 ML
N
3 0 M
3 -1.657 1.657 -3 0 -3 C
-1.657 -3 -3 -1.657 -3 0 C
-3 1.657 -1.657 3 0 3 C
1.657 3 3 1.657 3 0 C
cp
S
GR
GS
[1 0 0 1 365.05264 330.80292] CT
0.929 0.694 0.125 RC
10.0 ML
N
3 0 M
3 -1.657 1.657 -3 0 -3 C
-1.657 -3 -3 -1.657 -3 0 C
-3 1.657 -1.657 3 0 3 C
1.657 3 3 1.657 3 0 C
cp
S
GR
GS
[1 0 0 1 397.6842 331.71207] CT
0.929 0.694 0.125 RC
10.0 ML
N
3 0 M
3 -1.657 1.657 -3 0 -3 C
-1.657 -3 -3 -1.657 -3 0 C
-3 1.657 -1.657 3 0 3 C
1.657 3 3 1.657 3 0 C
cp
S
GR
GS
[1 0 0 1 430.3158 332.15097] CT
0.929 0.694 0.125 RC
10.0 ML
N
3 0 M
3 -1.657 1.657 -3 0 -3 C
-1.657 -3 -3 -1.657 -3 0 C
-3 1.657 -1.657 3 0 3 C
1.657 3 3 1.657 3 0 C
cp
S
GR
GS
[1 0 0 1 462.94736 332.60556] CT
0.929 0.694 0.125 RC
10.0 ML
N
3 0 M
3 -1.657 1.657 -3 0 -3 C
-1.657 -3 -3 -1.657 -3 0 C
-3 1.657 -1.657 3 0 3 C
1.657 3 3 1.657 3 0 C
cp
S
GR
GS
[1 0 0 1 495.57895 333.04446] CT
0.929 0.694 0.125 RC
10.0 ML
N
3 0 M
3 -1.657 1.657 -3 0 -3 C
-1.657 -3 -3 -1.657 -3 0 C
-3 1.657 -1.657 3 0 3 C
1.657 3 3 1.657 3 0 C
cp
S
GR
GS
[1 0 0 1 528.21051 332.82501] CT
0.929 0.694 0.125 RC
10.0 ML
N
3 0 M
3 -1.657 1.657 -3 0 -3 C
-1.657 -3 -3 -1.657 -3 0 C
-3 1.657 -1.657 3 0 3 C
1.657 3 3 1.657 3 0 C
cp
S
GR
GS
[1 0 0 1 560.8421 332.15097] CT
0.929 0.694 0.125 RC
10.0 ML
N
3 0 M
3 -1.657 1.657 -3 0 -3 C
-1.657 -3 -3 -1.657 -3 0 C
-3 1.657 -1.657 3 0 3 C
1.657 3 3 1.657 3 0 C
cp
S
GR
GS
[1 0 0 1 593.47369 332.60556] CT
0.929 0.694 0.125 RC
10.0 ML
N
3 0 M
3 -1.657 1.657 -3 0 -3 C
-1.657 -3 -3 -1.657 -3 0 C
-3 1.657 -1.657 3 0 3 C
1.657 3 3 1.657 3 0 C
cp
S
GR
GS
[1 0 0 1 626.10529 333.49902] CT
0.929 0.694 0.125 RC
10.0 ML
N
3 0 M
3 -1.657 1.657 -3 0 -3 C
-1.657 -3 -3 -1.657 -3 0 C
-3 1.657 -1.657 3 0 3 C
1.657 3 3 1.657 3 0 C
cp
S
GR
GS
[1 0 0 1 658.73682 333.04446] CT
0.929 0.694 0.125 RC
10.0 ML
N
3 0 M
3 -1.657 1.657 -3 0 -3 C
-1.657 -3 -3 -1.657 -3 0 C
-3 1.657 -1.657 3 0 3 C
1.657 3 3 1.657 3 0 C
cp
S
GR
GS
[1 0 0 1 691.36841 332.60556] CT
0.929 0.694 0.125 RC
10.0 ML
N
3 0 M
3 -1.657 1.657 -3 0 -3 C
-1.657 -3 -3 -1.657 -3 0 C
-3 1.657 -1.657 3 0 3 C
1.657 3 3 1.657 3 0 C
cp
S
GR
GS
[1 0 0 1 724 327.22903] CT
0.929 0.694 0.125 RC
10.0 ML
N
3 0 M
3 -1.657 1.657 -3 0 -3 C
-1.657 -3 -3 -1.657 -3 0 C
-3 1.657 -1.657 3 0 3 C
1.657 3 3 1.657 3 0 C
cp
S
GR
GS
1 GC
N
716 105 M
716 43 L
638.5 43 L
638.5 105 L
cp
f
GR
GS
[1 0 0 1 675.5 54.5] CT
/Helvetica 16.2 F
GS
[1 0 0 1 0 0] CT
0 6 moveto 
1 -1 scale
(2016) t 
GR
GR
GS
0 0.447 0.741 RC
1 LJ
0.5 LW
N
642.5 54.5 M
672.5 54.5 L
S
GR
GS
[1 0 0 1 657.5 54.5] CT
0 0.447 0.741 RC
10.0 ML
N
3 0 M
3 -1.657 1.657 -3 0 -3 C
-1.657 -3 -3 -1.657 -3 0 C
-3 1.657 -1.657 3 0 3 C
1.657 3 3 1.657 3 0 C
cp
S
GR
GS
[1 0 0 1 675.5 74] CT
/Helvetica 16.2 F
GS
[1 0 0 1 0 0] CT
0 6 moveto 
1 -1 scale
(2017) t 
GR
GR
GS
0.851 0.325 0.098 RC
1 LJ
0.5 LW
N
642.5 74 M
672.5 74 L
S
GR
GS
[1 0 0 1 657.5 74] CT
0.851 0.325 0.098 RC
10.0 ML
N
3 0 M
3 -1.657 1.657 -3 0 -3 C
-1.657 -3 -3 -1.657 -3 0 C
-3 1.657 -1.657 3 0 3 C
1.657 3 3 1.657 3 0 C
cp
S
GR
GS
[1 0 0 1 675.5 93.5] CT
/Helvetica 16.2 F
GS
[1 0 0 1 0 0] CT
0 6 moveto 
1 -1 scale
(2018) t 
GR
GR
GS
0.929 0.694 0.125 RC
1 LJ
0.5 LW
N
642.5 93.5 M
672.5 93.5 L
S
GR
GS
[1 0 0 1 657.5 93.5] CT
0.929 0.694 0.125 RC
10.0 ML
N
3 0 M
3 -1.657 1.657 -3 0 -3 C
-1.657 -3 -3 -1.657 -3 0 C
-3 1.657 -1.657 3 0 3 C
1.657 3 3 1.657 3 0 C
cp
S
GR
GS
0.149 GC
10.0 ML
0.5 LW
N
638.5 105 M
638.5 43 L
716 43 L
716 105 L
cp
S
GR
%%Trailer
%%Pages: 1
%%EOF
